[{"line":1,"elements":[{"line":2,"name":"Fetch all users","description":"","id":"fetch-all-users","type":"scenario","keyword":"Scenario","steps":[{"name":"url 'https:\/\/reqres.in\/api\/users?page=2'","result":{"duration":69999100,"status":"passed"},"match":{"location":"karate","arguments":[]},"keyword":"Given","line":3},{"name":"method GET","result":{"duration":7781368400,"status":"passed"},"match":{"location":"karate","arguments":[]},"keyword":"When","line":4,"doc_string":{"content_type":"","value":"14:50:59.669 request:\n1 > GET https:\/\/reqres.in\/api\/users?page=2\n1 > Accept-Encoding: gzip,deflate\n1 > Connection: Keep-Alive\n1 > Host: reqres.in\n1 > User-Agent: Apache-HttpClient\/4.5.5 (Java\/1.8.0_201)\n\n14:51:03.522 response time in milliseconds: 3770.01\n1 < 200\n1 < Access-Control-Allow-Origin: *\n1 < Age: 1915\n1 < CF-Cache-Status: HIT\n1 < CF-RAY: 52aae0db99acc1b6-IAD\n1 < Cache-Control: public, max-age=14400\n1 < Connection: keep-alive\n1 < Content-Type: application\/json; charset=utf-8\n1 < Date: Thu, 24 Oct 2019 09:21:03 GMT\n1 < Etag: W\/\"414-k36Lu9tCb0XMJeh2\/UG19C4xbw4\"\n1 < Expect-CT: max-age=604800, report-uri=\"https:\/\/report-uri.cloudflare.com\/cdn-cgi\/beacon\/expect-ct\"\n1 < Expires: Thu, 24 Oct 2019 13:21:03 GMT\n1 < Server: cloudflare\n1 < Set-Cookie: __cfduid=dac42439c0144173c3260179ef72fc0af1571908863; expires=Fri, 23-Oct-20 09:21:03 GMT; path=\/; domain=.reqres.in; HttpOnly; Secure\n1 < Transfer-Encoding: chunked\n1 < Vary: Accept-Encoding\n1 < Via: 1.1 vegur\n1 < X-Powered-By: Express\n{\"page\":2,\"per_page\":6,\"total\":12,\"total_pages\":2,\"data\":[{\"id\":7,\"email\":\"michael.lawson@reqres.in\",\"first_name\":\"Michael\",\"last_name\":\"Lawson\",\"avatar\":\"https:\/\/s3.amazonaws.com\/uifaces\/faces\/twitter\/follettkyle\/128.jpg\"},{\"id\":8,\"email\":\"lindsay.ferguson@reqres.in\",\"first_name\":\"Lindsay\",\"last_name\":\"Ferguson\",\"avatar\":\"https:\/\/s3.amazonaws.com\/uifaces\/faces\/twitter\/araa3185\/128.jpg\"},{\"id\":9,\"email\":\"tobias.funke@reqres.in\",\"first_name\":\"Tobias\",\"last_name\":\"Funke\",\"avatar\":\"https:\/\/s3.amazonaws.com\/uifaces\/faces\/twitter\/vivekprvr\/128.jpg\"},{\"id\":10,\"email\":\"byron.fields@reqres.in\",\"first_name\":\"Byron\",\"last_name\":\"Fields\",\"avatar\":\"https:\/\/s3.amazonaws.com\/uifaces\/faces\/twitter\/russoedu\/128.jpg\"},{\"id\":11,\"email\":\"george.edwards@reqres.in\",\"first_name\":\"George\",\"last_name\":\"Edwards\",\"avatar\":\"https:\/\/s3.amazonaws.com\/uifaces\/faces\/twitter\/mrmoiree\/128.jpg\"},{\"id\":12,\"email\":\"rachel.howell@reqres.in\",\"first_name\":\"Rachel\",\"last_name\":\"Howell\",\"avatar\":\"https:\/\/s3.amazonaws.com\/uifaces\/faces\/twitter\/hebertialmeida\/128.jpg\"}]}","line":4}},{"name":"status 200","result":{"duration":11700,"status":"passed"},"match":{"location":"karate","arguments":[]},"keyword":"Then","line":5},{"name":"match $ contains {page:2,per_page:6,total_pages:2}","result":{"duration":125451100,"status":"passed"},"match":{"location":"karate","arguments":[]},"keyword":"And","line":6},{"name":"match $.data[0] contains {id:7,email:\"michael.lawson@reqres.in\"}","result":{"duration":9157800,"status":"passed"},"match":{"location":"karate","arguments":[]},"keyword":"And","line":7}]}],"name":"com\/tutorials\/karate\/TestFeature.feature","description":"Test User API","id":"test-user-api","keyword":"Feature","uri":"com\/tutorials\/karate\/TestFeature.feature"}]